[
   {
     "name": "US Air Force F-4E Phantom II",
     "price": 36.70,
     "image": "https://www.scalemodelstore.com/content/shop/images/original/51371.jpg",
     "vendorCode": 6194,
     "scale": "1:44"
   },
   {
     "name": "Lockheed Martin F-35A Lightning II",
     "price": 79.95,
     "image": "https://www.scalemates.com/products/img/8/6/2/1442862-13385-19-pristine.jpg",
     "vendorCode": 61124,
     "scale": "1:48"
   },
   {
     "name": "US Marine Corps F/A-18D Hornet",
     "price": 87.40,
     "image": "https://www.scalemodelstore.com/content/shop/images/original/58145.jpg",
     "vendorCode": 241056,
     "scale": "1:72"
   },
   {
     "name": "RSAF F-16D",
     "price": 82.80,
     "image": "https://www.scalemodelstore.com/content/shop/images/original/58275.jpg",
     "vendorCode": 7007,
     "scale": "1:72"
   },
   {
     "name": "Ukraine Air Force Antonov An-12",
     "price": 64.35,
     "image": "https://www.scalemodelstore.com/content/shop/images/original/39110.jpg",
     "vendorCode": 93645,
     "scale": "1:200"
   },
   {
     "name": "Antonov AN-225",
     "price": 55.20,
     "image": "https://www.scalemodelstore.com/content/shop/images/original/32519.jpg",
     "vendorCode": 8108,
     "scale": "1:500"
   },
   {
     "name": "US Air Force A-10A Thunderbolt II",
     "price": 87.40,
     "image": "https://www.scalemodelstore.com/content/shop/images/original/57955.jpg",
     "vendorCode": 11168,
     "scale": "1:72"
   },
   {
     "name": "French Air Force Mirage 2000C",
     "price": 31.35,
     "image": "https://www.scalemodelstore.com/content/shop/images/original/57536.jpg",
     "vendorCode": 33656,  
     "scale": "1:200"
   },
   {
     "name": "RAF Eurofighter Typhoon",
     "price": 87.40,
     "image": "https://www.scalemodelstore.com/content/shop/images/original/57717.jpg",
     "vendorCode": 607785,
     "scale": "1:72"
   },
   {
     "name": "Royal Air Force Spitfire MK IXc",
     "price": 55.35,
     "image": "https://www.scalemodelstore.com/content/shop/images/original/47934.jpg",
     "vendorCode": 6528,
     "scale": "1:72"
   }
 ]
 